Project 1
…
library(dplyr)

#crime5yrs_nona_neightborhood<-subset(crime5yrs, (!is.na(NEIGHBORHOOD_CLUSTER)))

#crime5yrs_nona_neightborhood<-na.omit(crime5yrs)

crime5yrs_nona_neightborhood <- crime5yrs[!(crime5yrs$NEIGHBORHOOD_CLUSTER == ""), ]
crime_by_neighborhood_cluster<-group_by(crime5yrs_nona_neightborhood,NEIGHBORHOOD_CLUSTER)
neighborhood_crime_count<-summarize(crime_by_neighborhood_cluster, crime_count=length(NEIGHBORHOOD_CLUSTER))
neighborhood_crime_count

## # A tibble: 39 x 2
##    NEIGHBORHOOD_CLUSTER crime_count
##    <fct>                      <int>
##  1 Cluster 1                   4298
##  2 Cluster 10                  1476
##  3 Cluster 11                  3040
##  4 Cluster 12                   967
##  5 Cluster 13                   947
##  6 Cluster 14                  1328
##  7 Cluster 15                  1770
##  8 Cluster 16                   872
##  9 Cluster 17                  5213
## 10 Cluster 18                  8116
## # ... with 29 more rows
…
New44<-data.frame("Cluster 44",0)
names(New44)<-c("NEIGHBORHOOD_CLUSTER","crime_count")
neighborhood_crime_count <- rbind(neighborhood_crime_count, New44)

New45<-data.frame("Cluster 45",0)
names(New45)<-c("NEIGHBORHOOD_CLUSTER","crime_count")
neighborhood_crime_count <- rbind(neighborhood_crime_count, New45)

New46<-data.frame("Cluster 46",0)
names(New46)<-c("NEIGHBORHOOD_CLUSTER","crime_count")
neighborhood_crime_count <- rbind(neighborhood_crime_count, New46)

neighborhood_crime_count

## # A tibble: 46 x 2
##    NEIGHBORHOOD_CLUSTER crime_count
##    <fct>                      <dbl>
##  1 Cluster 1                   4298
##  2 Cluster 10                  1476
##  3 Cluster 11                  3040
##  4 Cluster 12                   967
##  5 Cluster 13                   947
##  6 Cluster 14                  1328
##  7 Cluster 15                  1770
##  8 Cluster 16                   872
##  9 Cluster 17                  5213
## 10 Cluster 18                  8116
## # ... with 36 more rows
…
